<?xml version="1.0" encoding="UTF-8"?>
<svg id="Layer_1" data-name="Layer 1" xmlns="http://www.w3.org/2000/svg" viewBox="0 0 248.93 151">
  <defs>
    <style>
      .cls-1 {
        letter-spacing: -.04em;
      }

      .cls-2 {
        fill: #f2ecf6;
      }

      .cls-2, .cls-3 {
        stroke: #6b5ea9;
        stroke-miterlimit: 10;
      }

      .cls-4 {
        fill: #6b5ea9;
        font-family: Bahnschrift, Bahnschrift;
        font-size: 12px;
        font-variation-settings: 'wght' 400, 'wdth' 100;
      }

      .cls-3 {
        fill: none;
      }
    </style>
  </defs>
  <path class="cls-3" d="M248.43,75.5c0,41.42-33.58,75-75,75-18.71,0-35.82-6.86-48.96-18.19,15.94-13.75,26.03-34.1,26.03-56.81s-10.09-43.06-26.03-56.81C137.61,7.36,154.72.5,173.43.5c41.42,0,75,33.58,75,75Z"/>
  <path class="cls-3" d="M150.5,75.5c0,22.71-10.09,43.06-26.03,56.81-15.95-13.75-26.04-34.1-26.04-56.81s10.09-43.06,26.04-56.81c15.94,13.75,26.03,34.1,26.03,56.81Z"/>
  <path class="cls-2" d="M124.47,132.31c-13.14,11.33-30.26,18.19-48.97,18.19C34.08,150.5.5,116.92.5,75.5S34.08.5,75.5.5c18.71,0,35.83,6.86,48.97,18.19-15.95,13.75-26.04,34.1-26.04,56.81s10.09,43.06,26.04,56.81Z"/>
  <text class="cls-4" transform="translate(190.53 81.09)"><tspan class="cls-1" x="0" y="0">T</tspan><tspan x="5.31" y="0">able B</tspan></text>
  <text class="cls-4" transform="translate(19.42 81.09)"><tspan class="cls-1" x="0" y="0">T</tspan><tspan x="5.31" y="0">able A</tspan></text>
</svg>